%YAML 1.1
%TAG !u! tag:unity3d.com,2011:
--- !u!114 &11400000
MonoBehaviour:
  m_ObjectHideFlags: 0
  m_PrefabParentObject: {fileID: 0}
  m_PrefabInternal: {fileID: 0}
  m_GameObject: {fileID: 0}
  m_Enabled: 1
  m_EditorHideFlags: 0
  m_Script: {fileID: 11500000, guid: 27912182bc81d704386d23dee8d86cc9, type: 3}
  m_Name: Scene config
  m_EditorClassIdentifier: 
  m_menu:
    m_levelName: Main Menu
    m_levelImage: {fileID: 10905, guid: 0000000000000000f000000000000000, type: 0}
    m_levelBuildIndex: 0
  m_levels:
  - m_levelName: Level 1
    m_levelImage: {fileID: 21300000, guid: 063ec453d46ec734d82fa744fa67abc3, type: 3}
    m_levelBuildIndex: 1
  - m_levelName: Level 2
    m_levelImage: {fileID: 21300000, guid: 919db5e471a77c34c8e054cb5d9b28d5, type: 3}
    m_levelBuildIndex: 2
